{
	"info": {
		"_postman_id": "5febf07f-2d48-4b20-a064-0b3268476112",
		"name": "s34",
		"schema": "https://schema.getpostman.com/json/collection/v2.1.0/collection.json",
		"_exporter_id": "27193791"
	},
	"item": [
		{
			"name": "discussion",
			"item": [
				{
					"name": "GET Show hello world",
					"request": {
						"method": "GET",
						"header": [],
						"url": {
							"raw": "localhost:4000/",
							"host": [
								"localhost"
							],
							"port": "4000",
							"path": [
								""
							]
						}
					},
					"response": []
				},
				{
					"name": "GET /hello",
					"request": {
						"method": "GET",
						"header": [],
						"url": {
							"raw": "localhost:4000/hello",
							"host": [
								"localhost"
							],
							"port": "4000",
							"path": [
								"hello"
							]
						}
					},
					"response": []
				},
				{
					"name": "POST greetings",
					"request": {
						"method": "POST",
						"header": [],
						"body": {
							"mode": "raw",
							"raw": "{\r\n    \"firstName\" : \"Mykl\",\r\n    \"lastName\" : \"Garcia\"\r\n}",
							"options": {
								"raw": {
									"language": "json"
								}
							}
						},
						"url": {
							"raw": "localhost:4000/hello",
							"host": [
								"localhost"
							],
							"port": "4000",
							"path": [
								"hello"
							]
						}
					},
					"response": []
				},
				{
					"name": "POST signup",
					"request": {
						"method": "POST",
						"header": [
							{
								"key": "Content-Type",
								"value": "application/json",
								"type": "text"
							}
						],
						"body": {
							"mode": "raw",
							"raw": "{\r\n    \"username\" : \"bossmapagmahal\",\r\n    \"password\" : \"ik4wlangsapatna\"\r\n\r\n    \"username\" : \"sadboi01\",\r\n    \"password\" : \"sayolangkakalembang\"\r\n\r\n    \"username\" : \"matchoman\",\r\n    \"password\" : \"sayolangkakaldag\"\r\n}",
							"options": {
								"raw": {
									"language": "json"
								}
							}
						},
						"url": {
							"raw": "localhost:4000/signup",
							"host": [
								"localhost"
							],
							"port": "4000",
							"path": [
								"signup"
							]
						}
					},
					"response": []
				},
				{
					"name": "PUT Request",
					"request": {
						"method": "PUT",
						"header": [],
						"url": {
							"raw": "localhost:4000/change-password",
							"host": [
								"localhost"
							],
							"port": "4000",
							"path": [
								"change-password"
							]
						}
					},
					"response": []
				}
			]
		},
		{
			"name": "activity",
			"item": [
				{
					"name": "GET homepage",
					"request": {
						"method": "GET",
						"header": [],
						"url": {
							"raw": "localhost:4000/home",
							"host": [
								"localhost"
							],
							"port": "4000",
							"path": [
								"home"
							]
						}
					},
					"response": []
				},
				{
					"name": "GET users",
					"request": {
						"method": "GET",
						"header": [],
						"url": {
							"raw": "localhost:4000/users",
							"host": [
								"localhost"
							],
							"port": "4000",
							"path": [
								"users"
							]
						}
					},
					"response": []
				},
				{
					"name": "DELETE user",
					"request": {
						"method": "DELETE",
						"header": [],
						"body": {
							"mode": "raw",
							"raw": "\r\n{\r\n    \"username\" : \"matchoman\",\r\n    \"password\" : \"sayolangkakaldag\"\r\n}\r\n",
							"options": {
								"raw": {
									"language": "json"
								}
							}
						},
						"url": {
							"raw": "localhost:4000/delete-users",
							"host": [
								"localhost"
							],
							"port": "4000",
							"path": [
								"delete-users"
							]
						}
					},
					"response": []
				}
			]
		}
	]
}